{
	"id": "b8e413cc-941f-4078-b63b-196827054347",
	"name": "QA",
	"values": [
		{
			"key": "url",
			"value": "https://qacoders-dev-br.umbler.net",
			"enabled": true
		},
		{
			"key": "Password",
			"value": "Mortadel@123",
			"enabled": true
		},
		{
			"key": "FirstName",
			"value": "",
			"enabled": true
		},
		{
			"key": "LastName",
			"value": "",
			"enabled": true
		},
		{
			"key": "FullName",
			"value": "",
			"enabled": true
		},
		{
			"key": "EmailProvider",
			"value": "",
			"enabled": true
		},
		{
			"key": "GuidID",
			"value": "",
			"enabled": true
		},
		{
			"key": "Email",
			"value": "",
			"enabled": true
		},
		{
			"key": "TokenResult",
			"value": "",
			"enabled": true
		},
		{
			"key": "Dif_Password",
			"value": "As senhas não conferem.",
			"enabled": true
		},
		{
			"key": "Registration",
			"value": "",
			"enabled": true
		}
	],
	"_postman_variable_scope": "environment",
	"_postman_exported_at": "2021-11-02T21:29:47.971Z",
	"_postman_exported_using": "Postman/9.1.2"
}